{
	"__handler__": "plot_rate_vs_pu",

	"output_file": "",

	"name": "",
	"title": "",
	"title_x": 0.175,

	"legend_ncolumns": 1,
	"legend_width": 0.300,
	"legend_height": 0.175,
	"legend_tlc_x": 0.175,
	"legend_tlc_y": 0.775,

	"y_axis_title": "",

	"entries": []
}