{
	"__handler__": "plot_parameter_vs_time",

	"output_file": "",

	"name": "",
	"title": "",
	"title_x": 0.375,

	"legend_ncolumns": 1,
	"legend_width": 0.300,
	"legend_height": 0.225,
	"legend_tlc_x": 0.150,
	"legend_tlc_y": 0.800,

	"y_axis_title": "",

	"date_format": "%m/%y",

	"entries": []
}