{
	"file": "",

	"legend": "",

	"size": 1,

	"color": 0,
	"style": 21,

	"noise_color": 0,
	"noise_style": 21,

	"fit_color": 0,
	"linear_fit_color": 0,

	"function": "",
	"fit_parameter_count": 0,
	"fit_from_x": 0,
	"fit_to_x": 0,

	"value_normalize_to": 1.0
}